%YAML 1.1
%TAG !u! tag:unity3d.com,2011:
--- !u!114 &11400000
MonoBehaviour:
  m_ObjectHideFlags: 0
  m_CorrespondingSourceObject: {fileID: 0}
  m_PrefabInternal: {fileID: 0}
  m_GameObject: {fileID: 0}
  m_Enabled: 1
  m_EditorHideFlags: 0
  m_Script: {fileID: 11500000, guid: 01fa4e9d089f8be43839585957f2607d, type: 3}
  m_Name: 45Degree
  m_EditorClassIdentifier: 
  timeBetweenMovements: 5
  movementDirections:
  - {x: -1, y: -2}
  - {x: 4, y: -2}
  - {x: -4, y: -2}
  - {x: 4, y: -2}
  - {x: -4, y: -2}
  - {x: 4, y: -2}
  - {x: -4, y: -2}
  - {x: 4, y: -2}
