%YAML 1.1
%TAG !u! tag:unity3d.com,2011:
--- !u!114 &11400000
MonoBehaviour:
  m_ObjectHideFlags: 0
  m_CorrespondingSourceObject: {fileID: 0}
  m_PrefabInternal: {fileID: 0}
  m_GameObject: {fileID: 0}
  m_Enabled: 1
  m_EditorHideFlags: 0
  m_Script: {fileID: 11500000, guid: aad4cc617629a4e4e82c3e5ea6520298, type: 3}
  m_Name: PlusSign
  m_EditorClassIdentifier: 
  timeBetweenShots: 0.1
  bulletDirections:
  - {x: 0, y: -1}
  - {x: 1, y: 0}
  - {x: 0, y: 1}
  - {x: -1, y: 0}
  bulletType: {fileID: 1855353274404938, guid: bb4eb1fbe10acfb42a40fe50bd87be29, type: 2}
